dialog{
  id = "_controls.heal",
  text = [[
Pressione V para se curar usando
frascos de sangue. Você pode carregar até 20 frascos.
O resto será guardado no armazém.
]],
}

dialog{
  id = "_controls.lantern",
  text = [[
Comungue com o sonho nas
lanternas. Elas irão curá-lo, mas os
inimigos derrotados retornarão.
]],
}

dialog{
  id = "_controls.level_up",
  text = [[
Gaste Ecos de Sangue para subir de nível
em qualquer lanterna ou com a boneca
no Sonho do Caçador.
]],
}

dialog{
  id = "_controls.move_talk",
  text = [[
Use as setas para se mover e a
barra de espaço para interagir ou
rolar.
]],
}

dialog{
  id = "_controls.pause",
  text = [[
Pressione D para pausar e salvar.
Você reiniciará na última lanterna
ao recarregar o jogo.
]],
}

dialog{
  id = "_controls.pistol",
  text = [[
Pressione X para disparar a pistola.
Ela pode atordoar inimigos se disparada
logo antes do ataque acertar.
]],
}

dialog{
  id = "_controls.visceral",
  text = [[
Acerte um inimigo com a pistola
ou nas costas com um ataque
carregado para atordoá-los. Enquanto estão
atordoados, acerte-os para
fazer um ataque visceral.
]],
}

dialog{
  id = "_controls.weapon",
  text = [[
Pressione C para brandir a sua arma.
Mantenha pressionado para carregar um ataque.
]],
}

dialog{
  id = "_game.locked",
  text = [[
Trancado.
]],
}

dialog{
  id = "_game.not_enough_bloodstone",
  text = [[
Você não tem Pedras de Sangue suficientes.
]],
}

dialog{
  id = "_game.pause",
  question = "1",
  text = [[
        - Pausa -
Salvar e Continuar
Sair
]],
}

dialog{
  id = "_game.rest_at_lantern",
  question = "1",
  text = [[
Comungar com O Sonho?
Sim
Não
]],
}

dialog{
  id = "_game.weapon_upgrade",
  question = "1",
  text = [[
Melhorar a arma?
Sim
Não
]],
}

dialog{
  id = "_game.wrong_side",
  text = [[
Não abre deste lado.
]],
}

dialog{
  id = "_max.congrats",
  text = [[
Oi, eu sou o Max! Este é o fim,
mas obrigado por jogar.
]],
}

dialog{
  id = "_npcs.doll.exit",
  text = [[
Que você encontre seu valor no
mundo desperto.
]],
}

dialog{
  id = "_npcs.doll.welcome",
  text = [[
Bem-vindo, bom caçador. Deixe os
Ecos serem sua força.
]],
}

dialog{
  id = "_npcs.eileen.1",
  text = [[
Ah, um caçador, não é? Que confusão
você se meteu. E logo essa noite,
de todas as noites. Prepare-se
para o pior, não
sobraram humanos. Todos eles são bestas
agora. Assustado? Hah, não importa.
Sem o medo, não somos diferentes
das próprias bestas.
]],
}

dialog{
  id = "_npcs.eileen.2",
  text = [[
Ora, o que você ainda está fazendo
aqui? Pare de tremer. Um caçador
deve caçar.
]],
}

dialog{
  id = "_shop.not_enough_echoes",
  text = [[
Ecos insuficientes.
]],
}

dialog{
  id = "_shop.vials",
  question = "1",
  text = [[
Comprar frasco de sangue por 170 ecos?
Sim
Não
]],
}

dialog{
  id = "_test.1",
  text = [[
Esfinge de quartzo negro, ouça o meu
juramento! Quando os zumbis chegarem, 
envie um fax para o juiz Pat!
]],
}

dialog{
  id = "_treasure.blood_vial.1",
  text = [[
Você encontrou um frasco de sangue. Sangue
especial usado em cerimônias.
Restaura HP.
]],
}

dialog{
  id = "_treasure.blood_vial.2",
  text = [[
Você encontrou um frasco de sangue. Sangue
especial usado em cerimônias.
Restaura HP.
]],
}

dialog{
  id = "_treasure.blood_vial.3",
  text = [[
Você encontrou um frasco de sangue. Sangue
especial usado em cerimônias.
Restaura HP.
]],
}

dialog{
  id = "_treasure.blood_vial.4",
  text = [[
Você encontrou um frasco de sangue. Sangue
especial usado em cerimônias.
Restaura HP.
]],
}

dialog{
  id = "_treasure.bloodstone_shard.1",
  text = [[
Você encontrou um Fragmento de Pedra de Sangue, um
fragmento formado em sangue frio.
Incorpore-o às suas armas para fortalecê-las.
]],
}

dialog{
  id = "_treasure.bloodstone_shard.2",
  text = [[
Você encontrou Fragmentos de Pedra de Sangue,
fragmentos formados em sangue frio.
Incorpore-os às suas armas para fortalecê-las.
]],
}

dialog{
  id = "_treasure.bloodstone_shard.3",
  text = [[
Você encontrou Fragmentos de Pedra de Sangue,
fragmentos formados em sangue frio.
Incorpore-os às suas armas para fortalecê-las.
]],
}

dialog{
  id = "_treasure.dandelion_charm.1",
  text = [[
O osso de um antigo caçador cujo nome foi
perdido. Dizem que eles eram praticantes
da arte da Aceleração, uma técnica
especial dos primeiros caçadores.
]],
}

dialog{
  id = "_treasure.quicksilver_bullets.1",
  text = [[
Você encontrou balas de mercúrio.
Em armas de fogo, o mercúrio
deve ser usado contra bestas.
]],
}

dialog{
  id = "_treasure.quicksilver_bullets.2",
  text = [[
Você encontrou balas de mercúrio.
Em armas de fogo, o mercúrio
deve ser usado contra bestas.
]],
}

dialog{
  id = "_treasure.quicksilver_bullets.3",
  text = [[
Você encontrou balas de mercúrio.
Em armas de fogo, o mercúrio
deve ser usado contra bestas.
]],
}

dialog{
  id = "_treasure.quicksilver_bullets.4",
  text = [[
Você encontrou balas de mercúrio.
Em armas de fogo, o mercúrio
deve ser usado contra bestas.
]],
}
